…
First, we require a data frame containing the two time series’ data as
columns.

``` r
daily_temperature_wide <- daily_temperature %>%
  pivot_wider(id_cols=date, names_from=origin, values_from=temp)

daily_temperature_wide
#> # A tibble: 364 × 3
#>    date         DTW   LGA
#>    <date>     <dbl> <dbl>
#>  1 2013-01-01  26.4  39.4
#>  2 2013-01-02  17.1  28.7
#>  3 2013-01-03  21.2  29.7
#>  4 2013-01-04  27.6  35.2
#>  5 2013-01-05  23.3  37.8
#>  6 2013-01-06  34.1  39.7
#>  7 2013-01-07  32.6  42.2
#>  8 2013-01-08  29.0  41.5
#>  9 2013-01-09  37.4  43.8
#> 10 2013-01-10  34.3  45.8
#> # ℹ 354 more rows
```
…
The LoCo scores can be obtained by passing `daily_temperature_wide` to
`loco::loco()`. We set the window size to 5 and the number of principal
eigenvectors used to 3. We can optionally supply the `date` column to
the `timestamps` argument for ease of subsequent visualisation.

``` r
loco_scores <- daily_temperature_wide %>%
  loco(DTW, LGA, timestamps=date, window_size=5, k=3)

loco_scores
#> # A tibble: 356 × 2
#>    timestamps scores
#>    <date>      <dbl>
#>  1 2013-01-05  1.00 
#>  2 2013-01-06  1.00 
#>  3 2013-01-07  1.00 
#>  4 2013-01-08  1.00 
#>  5 2013-01-09  1.00 
#>  6 2013-01-10  0.999
#>  7 2013-01-11  1.00 
#>  8 2013-01-12  1.00 
#>  9 2013-01-13  1.00 
#> 10 2013-01-14  1.00 
#> # ℹ 346 more rows
```
…
