Local Correlation Tracking of Time Series (LoCo) • loco
…
First, we require a data frame containing the two time series’ data as columns.

daily_temperature_wide <- daily_temperature %>%
  pivot_wider(id_cols=date, names_from=origin, values_from=temp)

daily_temperature_wide
#> # A tibble: 364 × 3
#>    date         JFK   LAX
#>    <date>     <dbl> <dbl>
#>  1 2013-01-01  38.9  51.8
#>  2 2013-01-02  28.5  54.0
#>  3 2013-01-03  29.8  55.0
#>  4 2013-01-04  34.0  56.9
#>  5 2013-01-05  36.9  52.9
#>  6 2013-01-06  37.4  52.7
#>  7 2013-01-07  41.9  55.2
#>  8 2013-01-08  38.7  55.3
#>  9 2013-01-09  40.8  56.1
#> 10 2013-01-10  45.0  55.0
#> # ℹ 354 more rows
…
The LoCo scores can be obtained by passing daily_temperature_wide to loco::loco(). We set the window size to 10 and the number of principal eigenvectors used to 3. We can optionally supply the date column to the timestamps argument for ease of subsequent visualisation.

loco_scores <- daily_temperature_wide %>%
  loco(JFK, LAX, timestamp=date, window_size=10, k=3)

loco_scores
#> # A tibble: 346 × 2
#>    timestamp  score
#>    <date>     <dbl>
#>  1 2013-01-10 0.984
#>  2 2013-01-11 0.989
#>  3 2013-01-12 0.991
#>  4 2013-01-13 0.993
#>  5 2013-01-14 0.994
#>  6 2013-01-15 0.995
#>  7 2013-01-16 0.995
#>  8 2013-01-17 0.996
#>  9 2013-01-18 0.998
#> 10 2013-01-19 0.999
#> # ℹ 336 more rows
…
